{
  "$schema": "http://schemas.wp.org/trunk/theme.json",
  "version": 3,
  "settings": {
    "appearanceTools": true,
    "useRootPaddingAwareAlignments": true,
    "spacing": {
      "blockGap": true,
      "margin": true,
      "padding": true,
      "customSpacingSize": true
    },
    "layout": {
      "contentSize": "992px",
      "wideSize": "1240px"
    },
    "typography": {
      "fontFamilies": [
        {
          "fontFamily": "Raleway, sans-serif",
          "name": "Raleway",
          "slug": "body-alt",
          "fontFace": [
            {
              "fontFamily": "Raleway, sans-serif",
              "fontStyle": "normal",
              "fontWeight": "600",
              "src": [
                "file:./assets/fonts/Raleway/static/Raleway-Bold.ttf",
                "file:./assets/fonts/Raleway/static/Raleway-Bold.woff2"
              ]
            },
            {
              "fontFamily": "Raleway, sans-serif",
              "fontStyle": "italic",
              "fontWeight": "600",
              "src": [
                "file:./assets/fonts/Raleway/static/Raleway-BoldItalic.ttf",
                "file:./assets/fonts/Raleway/static/Raleway-BoldItalic.woff2"
              ]
            },
            {
              "fontFamily": "Raleway, sans-serif",
              "fontStyle": "normal",
              "fontWeight": "900",
              "src": [
                "file:./assets/fonts/Raleway/static/Raleway-ExtraBold.ttf",
                "file:./assets/fonts/Raleway/static/Raleway-ExtraBold.woff2"
              ]
            },
            {
              "fontFamily": "Raleway, sans-serif",
              "fontStyle": "italic",
              "fontWeight": "900",
              "src": [
                "file:./assets/fonts/Raleway/static/Raleway-ExtraBoldItalic.ttf",
                "file:./assets/fonts/Raleway/static/Raleway-ExtraBoldItalic.woff2"
              ]
            },
            {
              "fontFamily": "Raleway, sans-serif",
              "fontStyle": "normal",
              "fontWeight": "200",
              "src": [
                "file:./assets/fonts/Raleway/static/Raleway-ExtraLight.ttf",
                "file:./assets/fonts/Raleway/static/Raleway-ExtraLight.woff2"
              ]
            },
            {
              "fontFamily": "Raleway, sans-serif",
              "fontStyle": "italic",
              "fontWeight": "200",
              "src": [
                "file:./assets/fonts/Raleway/static/Raleway-ExtraLightItalic.ttf",
                "file:./assets/fonts/Raleway/static/Raleway-ExtraLightItalic.woff2"
              ]
            },
            {
              "fontFamily": "Raleway, sans-serif",
              "fontStyle": "italic",
              "fontWeight": "400",
              "src": [
                "file:./assets/fonts/Raleway/static/Raleway-Italic.ttf",
                "file:./assets/fonts/Raleway/static/Raleway-Italic.woff2"
              ]
            },
            {
              "fontFamily": "Raleway, sans-serif",
              "fontStyle": "normal",
              "fontWeight": "200",
              "src": [
                "file:./assets/fonts/Raleway/static/Raleway-Light.ttf",
                "file:./assets/fonts/Raleway/static/Raleway-Light.woff2"
              ]
            },
            {
              "fontFamily": "Raleway, sans-serif",
              "fontStyle": "italic",
              "fontWeight": "200",
              "src": [
                "file:./assets/fonts/Raleway/static/Raleway-LightItalic.ttf",
                "file:./assets/fonts/Raleway/static/Raleway-LightItalic.woff2"
              ]
            },
            {
              "fontFamily": "Raleway, sans-serif",
              "fontStyle": "normal",
              "fontWeight": "500",
              "src": [
                "file:./assets/fonts/Raleway/static/Raleway-Medium.ttf",
                "file:./assets/fonts/Raleway/static/Raleway-Medium.woff2"
              ]
            },
            {
              "fontFamily": "Raleway, sans-serif",
              "fontStyle": "italic",
              "fontWeight": "500",
              "src": [
                "file:./assets/fonts/Raleway/static/Raleway-MediumItalic.ttf",
                "file:./assets/fonts/Raleway/static/Raleway-MediumItalic.woff2"
              ]
            },
            {
              "fontFamily": "Raleway, sans-serif",
              "fontStyle": "normal",
              "fontWeight": "400",
              "src": [
                "file:./assets/fonts/Raleway/static/Raleway-Regular.ttf",
                "file:./assets/fonts/Raleway/static/Raleway-Regular.woff2"
              ]
            },
            {
              "fontFamily": "Raleway, sans-serif",
              "fontStyle": "normal",
              "fontWeight": "100",
              "src": [
                "file:./assets/fonts/Raleway/static/Raleway-Thin.ttf",
                "file:./assets/fonts/Raleway/static/Raleway-Thin.woff2"
              ]
            },
            {
              "fontFamily": "Raleway, sans-serif",
              "fontStyle": "italic",
              "fontWeight": "100",
              "src": [
                "file:./assets/fonts/Raleway/static/Raleway-ThinItalic.ttf",
                "file:./assets/fonts/Raleway/static/Raleway-ThinItalic.woff2"
              ]
            },
            {
              "fontFamily": "Raleway, sans-serif",
              "fontStyle": "normal",
              "fontWeight": "400",
              "src": [
                "file:./assets/fonts/Raleway/static/Raleway-Regular.ttf",
                "file:./assets/fonts/Raleway/static/Raleway-Regular.woff2"
              ]
            },
            {
              "fontFamily": "Raleway, sans-serif",
              "fontStyle": "normal",
              "fontWeight": "600",
              "src": [
                "file:./assets/fonts/Raleway/static/Raleway-SemiBold.ttf",
                "file:./assets/fonts/Raleway/static/Raleway-SemiBold.woff2"
              ]
            },
            {
              "fontFamily": "Raleway, sans-serif",
              "fontStyle": "italic",
              "fontWeight": "600",
              "src": [
                "file:./assets/fonts/Raleway/static/Raleway-SemiBoldItalic.ttf",
                "file:./assets/fonts/Raleway/static/Raleway-SemiBoldItalic.woff2"
              ]
            },
            {
              "fontFamily": "Raleway, sans-serif",
              "fontStyle": "normal",
              "fontWeight": "100",
              "src": [
                "file:./assets/fonts/Raleway/static/Raleway-Thin.ttf",
                "file:./assets/fonts/Raleway/static/Raleway-Thin.woff2"
              ]
            },
            {
              "fontFamily": "Raleway, sans-serif",
              "fontStyle": "italic",
              "fontWeight": "100",
              "src": [
                "file:./assets/fonts/Raleway/static/Raleway-ThinItalic.ttf",
                "file:./assets/fonts/Raleway/static/Raleway-ThinItalic.woff2"
              ]
            }
          ]
        },
        {
          "fontFamily": "Roboto, sans-serif",
          "name": "Roboto",
          "slug": "body",
          "fontFace": [
            {
              "fontFamily": "Roboto, sans-serif",
              "fontStyle": "normal",
              "fontWeight": "900",
              "src": [
                "file:./assets/fonts/Roboto/Roboto-Black.ttf",
                "file:./assets/fonts/Roboto/Roboto-Black.woff2"
              ]
            },
            {
              "fontFamily": "Roboto, sans-serif",
              "fontStyle": "italic",
              "fontWeight": "900",
              "src": [
                "file:./assets/fonts/Roboto/Roboto-BlackItalic.ttf",
                "file:./assets/fonts/Roboto/Roboto-BlackItalic.woff2"
              ]
            },
            {
              "fontFamily": "Roboto, sans-serif",
              "fontStyle": "normal",
              "fontWeight": "600",
              "src": [
                "file:./assets/fonts/Roboto/Roboto-Bold.ttf",
                "file:./assets/fonts/Roboto/Roboto-Bold.woff2"
              ]
            },
            {
              "fontFamily": "Roboto, sans-serif",
              "fontStyle": "italic",
              "fontWeight": "600",
              "src": [
                "file:./assets/fonts/Roboto/Roboto-BoldItalic.ttf",
                "file:./assets/fonts/Roboto/Roboto-BoldItalic.woff2"
              ]
            },
            {
              "fontFamily": "Roboto, sans-serif",
              "fontStyle": "italic",
              "fontWeight": "400",
              "src": [
                "file:./assets/fonts/Roboto/Roboto-Italic.ttf",
                "file:./assets/fonts/Roboto/Roboto-Italic.woff2"
              ]
            },
            {
              "fontFamily": "Roboto, sans-serif",
              "fontStyle": "normal",
              "fontWeight": "200",
              "src": [
                "file:./assets/fonts/Roboto/Roboto-Light.ttf",
                "file:./assets/fonts/Roboto/Roboto-Light.woff2"
              ]
            },
            {
              "fontFamily": "Roboto, sans-serif",
              "fontStyle": "italic",
              "fontWeight": "200",
              "src": [
                "file:./assets/fonts/Roboto/Roboto-LightItalic.ttf",
                "file:./assets/fonts/Roboto/Roboto-LightItalic.woff2"
              ]
            },
            {
              "fontFamily": "Roboto, sans-serif",
              "fontStyle": "normal",
              "fontWeight": "500",
              "src": [
                "file:./assets/fonts/Roboto/Roboto-Medium.ttf",
                "file:./assets/fonts/Roboto/Roboto-Medium.woff2"
              ]
            },
            {
              "fontFamily": "Roboto, sans-serif",
              "fontStyle": "italic",
              "fontWeight": "500",
              "src": [
                "file:./assets/fonts/Roboto/Roboto-MediumItalic.ttf",
                "file:./assets/fonts/Roboto/Roboto-MediumItalic.woff2"
              ]
            },
            {
              "fontFamily": "Roboto, sans-serif",
              "fontStyle": "normal",
              "fontWeight": "400",
              "src": [
                "file:./assets/fonts/Roboto/Roboto-Regular.ttf",
                "file:./assets/fonts/Roboto/Roboto-Regular.woff2"
              ]
            },
            {
              "fontFamily": "Roboto, sans-serif",
              "fontStyle": "normal",
              "fontWeight": "100",
              "src": [
                "file:./assets/fonts/Roboto/Roboto-Thin.ttf",
                "file:./assets/fonts/Roboto/Roboto-Thin.woff2"
              ]
            },
            {
              "fontFamily": "Roboto, sans-serif",
              "fontStyle": "italic",
              "fontWeight": "100",
              "src": [
                "file:./assets/fonts/Roboto/Roboto-ThinItalic.ttf",
                "file:./assets/fonts/Roboto/Roboto-ThinItalic.woff2"
              ]
            }
          ]
        },
        {
          "fontFamily": "PT Serif, serif",
          "name": "PT Serif",
          "slug": "heading",
          "fontFace": [
            {
              "fontFamily": "PT Serif, serif",
              "fontStyle": "normal",
              "fontWeight": "600",
              "src": [
                "file:./assets/fonts/PT_Serif/PTSerif-Bold.ttf",
                "file:./assets/fonts/PT_Serif/PTSerif-Bold.woff2"
              ]
            },
            {
              "fontFamily": "PT Serif, serif",
              "fontStyle": "italic",
              "fontWeight": "600",
              "src": [
                "file:./assets/fonts/PT_Serif/PTSerif-BoldItalic.ttf",
                "file:./assets/fonts/PT_Serif/PTSerif-BoldItalic.woff2"
              ]
            },
            {
              "fontFamily": "PT Serif, serif",
              "fontStyle": "italic",
              "fontWeight": "400",
              "src": [
                "file:./assets/fonts/PT_Serif/PTSerif-Italic.ttf",
                "file:./assets/fonts/PT_Serif/PTSerif-Italic.woff2"
              ]
            },
            {
              "fontFamily": "PT Serif, serif",
              "fontStyle": "normal",
              "fontWeight": "400",
              "src": [
                "file:./assets/fonts/PT_Serif/PTSerif-Regular.ttf",
                "file:./assets/fonts/PT_Serif/PTSerif-Regular.woff2"
              ]
            }
          ]
        },
        {
          "fontFamily": "PT Serif Caption, serif",
          "name": "PT Serif Caption",
          "slug": "heading-alt",
          "fontFace": [
            {
              "fontFamily": "PT Serif Caption, serif",
              "fontStyle": "italic",
              "fontWeight": "400",
              "src": [
                "file:./assets/fonts/PT_Serif_Caption/PTSerifCaption-Italic.ttf",
                "file:./assets/fonts/PT_Serif_Caption/PTSerifCaption-Italic.woff2"
              ]
            },
            {
              "fontFamily": "PT Serif Caption, serif",
              "fontStyle": "normal",
              "fontWeight": "400",
              "src": [
                "file:./assets/fonts/PT_Serif_Caption/PTSerifCaption-Regular.ttf",
                "file:./assets/fonts/PT_Serif_Caption/PTSerifCaption-Regular.woff2"
              ]
            }
          ]
        },
        {
          "fontFamily": "Proxima Nova, sans-serif",
          "name": "Proxima Nova",
          "slug": "proxima-nova",
          "fontFace": [
            {
              "fontFamily": "Proxima Nova, sans-serif",
              "fontStyle": "normal",
              "fontWeight": "900",
              "src": [
                "file:./assets/fonts/Proxima_Nova/ProximaNova-Black.eot",
                "file:./assets/fonts/Proxima_Nova/ProximaNova-Black.ttf",
                "file:./assets/fonts/Proxima_Nova/ProximaNova-Black.woff",
                "file:./assets/fonts/Proxima_Nova/ProximaNova-Black.woff2"
              ]
            },
            {
              "fontFamily": "Proxima Nova, sans-serif",
              "fontStyle": "italic",
              "fontWeight": "900",
              "src": [
                "file:./assets/fonts/Proxima_Nova/ProximaNova-BlackItalic.eot",
                "file:./assets/fonts/Proxima_Nova/ProximaNova-BlackItalic.ttf",
                "file:./assets/fonts/Proxima_Nova/ProximaNova-BlackItalic.woff",
                "file:./assets/fonts/Proxima_Nova/ProximaNova-BlackItalic.woff2"
              ]
            },
            {
              "fontFamily": "Proxima Nova, sans-serif",
              "fontStyle": "normal",
              "fontWeight": "600",
              "src": [
                "file:./assets/fonts/Proxima_Nova/ProximaNova-Bold.eot",
                "file:./assets/fonts/Proxima_Nova/ProximaNova-Bold.ttf",
                "file:./assets/fonts/Proxima_Nova/ProximaNova-Bold.woff",
                "file:./assets/fonts/Proxima_Nova/ProximaNova-Bold.woff2"
              ]
            },
            {
              "fontFamily": "Proxima Nova, sans-serif",
              "fontStyle": "normal",
              "fontWeight": "600",
              "src": [
                "file:./assets/fonts/Proxima_Nova/ProximaNova-BoldItalic.eot",
                "file:./assets/fonts/Proxima_Nova/ProximaNova-BoldItalic.ttf",
                "file:./assets/fonts/Proxima_Nova/ProximaNova-BoldItalic.woff",
                "file:./assets/fonts/Proxima_Nova/ProximaNova-BoldItalic.woff2"
              ]
            },
            {
              "fontFamily": "Proxima Nova, sans-serif",
              "fontStyle": "normal",
              "fontWeight": "700",
              "src": [
                "file:./assets/fonts/Proxima_Nova/ProximaNova-Extrabold.eot",
                "file:./assets/fonts/Proxima_Nova/ProximaNova-Extrabold.ttf",
                "file:./assets/fonts/Proxima_Nova/ProximaNova-Extrabold.woff",
                "file:./assets/fonts/Proxima_Nova/ProximaNova-Extrabold.woff2"
              ]
            },
            {
              "fontFamily": "Proxima Nova, sans-serif",
              "fontStyle": "italic",
              "fontWeight": "700",
              "src": [
                "file:./assets/fonts/Proxima_Nova/ProximaNova-ExtraboldItalic.eot",
                "file:./assets/fonts/Proxima_Nova/ProximaNova-ExtraboldItalic.ttf",
                "file:./assets/fonts/Proxima_Nova/ProximaNova-ExtraboldItalic.woff",
                "file:./assets/fonts/Proxima_Nova/ProximaNova-ExtraboldItalic.woff2"
              ]
            },
            {
              "fontFamily": "Proxima Nova, sans-serif",
              "fontStyle": "normal",
              "fontWeight": "200",
              "src": [
                "file:./assets/fonts/Proxima_Nova/ProximaNova-Light.eot",
                "file:./assets/fonts/Proxima_Nova/ProximaNova-Light.ttf",
                "file:./assets/fonts/Proxima_Nova/ProximaNova-Light.woff",
                "file:./assets/fonts/Proxima_Nova/ProximaNova-Light.woff2"
              ]
            },
            {
              "fontFamily": "Proxima Nova, sans-serif",
              "fontStyle": "italic",
              "fontWeight": "200",
              "src": [
                "file:./assets/fonts/Proxima_Nova/ProximaNova-LightItalic.eot",
                "file:./assets/fonts/Proxima_Nova/ProximaNova-LightItalic.ttf",
                "file:./assets/fonts/Proxima_Nova/ProximaNova-LightItalic.woff",
                "file:./assets/fonts/Proxima_Nova/ProximaNova-LightItalic.woff2"
              ]
            },
            {
              "fontFamily": "Proxima Nova, sans-serif",
              "fontStyle": "normal",
              "fontWeight": "500",
              "src": [
                "file:./assets/fonts/Proxima_Nova/ProximaNova-Medium.eot",
                "file:./assets/fonts/Proxima_Nova/ProximaNova-Medium.ttf",
                "file:./assets/fonts/Proxima_Nova/ProximaNova-Medium.woff",
                "file:./assets/fonts/Proxima_Nova/ProximaNova-Medium.woff2"
              ]
            },
            {
              "fontFamily": "Proxima Nova, sans-serif",
              "fontStyle": "italic",
              "fontWeight": "500",
              "src": [
                "file:./assets/fonts/Proxima_Nova/ProximaNova-MediumItalic.eot",
                "file:./assets/fonts/Proxima_Nova/ProximaNova-MediumItalic.ttf",
                "file:./assets/fonts/Proxima_Nova/ProximaNova-MediumItalic.woff",
                "file:./assets/fonts/Proxima_Nova/ProximaNova-MediumItalic.woff2"
              ]
            },
            {
              "fontFamily": "Proxima Nova, sans-serif",
              "fontStyle": "normal",
              "fontWeight": "400",
              "src": [
                "file:./assets/fonts/Proxima_Nova/ProximaNova-Regular.eot",
                "file:./assets/fonts/Proxima_Nova/ProximaNova-Regular.ttf",
                "file:./assets/fonts/Proxima_Nova/ProximaNova-Regular.woff",
                "file:./assets/fonts/Proxima_Nova/ProximaNova-Regular.woff2"
              ]
            },
            {
              "fontFamily": "Proxima Nova, sans-serif",
              "fontStyle": "italic",
              "fontWeight": "400",
              "src": [
                "file:./assets/fonts/Proxima_Nova/ProximaNova-RegularItalic.eot",
                "file:./assets/fonts/Proxima_Nova/ProximaNova-RegularItalic.ttf",
                "file:./assets/fonts/Proxima_Nova/ProximaNova-RegularItalic.woff",
                "file:./assets/fonts/Proxima_Nova/ProximaNova-RegularItalic.woff2"
              ]
            },
            {
              "fontFamily": "Proxima Nova, sans-serif",
              "fontStyle": "normal",
              "fontWeight": "600",
              "src": [
                "file:./assets/fonts/Proxima_Nova/ProximaNova-Semibold.eot",
                "file:./assets/fonts/Proxima_Nova/ProximaNova-Semibold.ttf",
                "file:./assets/fonts/Proxima_Nova/ProximaNova-Semibold.woff",
                "file:./assets/fonts/Proxima_Nova/ProximaNova-Semibold.woff2"
              ]
            },
            {
              "fontFamily": "Proxima Nova, sans-serif",
              "fontStyle": "italic",
              "fontWeight": "600",
              "src": [
                "file:./assets/fonts/Proxima_Nova/ProximaNova-SemiboldItalic.eot",
                "file:./assets/fonts/Proxima_Nova/ProximaNova-SemiboldItalic.ttf",
                "file:./assets/fonts/Proxima_Nova/ProximaNova-SemiboldItalic.woff",
                "file:./assets/fonts/Proxima_Nova/ProximaNova-SemiboldItalic.woff2"
              ]
            },
            {
              "fontFamily": "Proxima Nova, sans-serif",
              "fontStyle": "normal",
              "fontWeight": "100",
              "src": [
                "file:./assets/fonts/Proxima_Nova/ProximaNova-Thin.eot",
                "file:./assets/fonts/Proxima_Nova/ProximaNova-Thin.ttf",
                "file:./assets/fonts/Proxima_Nova/ProximaNova-Thin.woff",
                "file:./assets/fonts/Proxima_Nova/ProximaNova-Thin.woff2"
              ]
            },
            {
              "fontFamily": "Proxima Nova, sans-serif",
              "fontStyle": "italic",
              "fontWeight": "100",
              "src": [
                "file:./assets/fonts/Proxima_Nova/ProximaNova-ThinItalic.eot",
                "file:./assets/fonts/Proxima_Nova/ProximaNova-ThinItalic.ttf",
                "file:./assets/fonts/Proxima_Nova/ProximaNova-ThinItalic.woff",
                "file:./assets/fonts/Proxima_Nova/ProximaNova-ThinItalic.woff2"
              ]
            }
          ]
        },
        {
          "fontFamily": "UConn",
          "name": "UConn",
          "slug": "uconn",
          "fontFace": [
            {
              "fontFamily": "UConn",
              "fontStyle": "normal",
              "fontWeight": "400",
              "src": [
                "file:./assets/fonts/uconn/uconn.eot",
                "file:./assets/fonts/uconn/uconn.ttf",
                "file:./assets/fonts/uconn/uconn.woff"
              ]
            }
          ]
        }
      ],
      "fontSizes": [
        {
          "slug": "small",
          "name": "Small",
          "size": "12px"
        },
        {
          "slug": "normal",
          "name": "Normal",
          "size": "16px"
        },
        {
          "slug": "large",
          "name": "Large",
          "size": "20px"
        },
        {
          "slug": "x-large",
          "name": "Extra Large",
          "size": "32px"
        }
      ]
    },
    "blocks": {
      "core/button": {
        "border": {
          "radius": false
        },
        "color": {
          "custom": false
        }
      },
      "core/heading": {
        "typography": {
          "customFontSize": false,
          "fontWeight": false,
          "fontSizes": [],
          "fontStyle": false,
          "textTransform": false
        }
      },
      "ucomm-blocks/accordion-block": {
        "color": {
          "background": true,
          "text": true
        }
      },
      "ucomm-blocks/accordion-block-item": {
        "color": {
          "background": true,
          "text": true
        }
      }
    },
    "color": {
      "custom": true,
      "defaultPalette": false,
      "gradients": [
        {
          "name": "UConn Blue to Royal Blue",
          "slug": "gradient-1",
          "gradient": "linear-gradient(90deg, rgba(0,14,47,1) 20%, rgba(1,62,205,1) 100%)"
        }
      ],
      "palette": [
        {
          "color": "#ffffff",
          "name": "Background 1",
          "slug": "background-1"
        },
        {
          "color": "#efefef",
          "name": "Background 2",
          "slug": "background-2"
        },
        {
          "color": "#000000",
          "name": "Contrast 1",
          "slug": "contrast-1"
        },
        {
          "color": "#000e2f",
          "name": "Contrast 2/UConn Blue",
          "slug": "contrast-2"
        },
        {
          "color": "#b61311",
          "name": "Highlight 1",
          "slug": "highlight-1"
        },
        {
          "color": "#013ECD",
          "name": "Highlight 2/Brand Royal Blue",
          "slug": "highlight-2"
        },
        {
          "color": "#666666",
          "name": "Lowlight 1/Theme Grey",
          "slug": "lowlight-1"
        },
        {
          "color": "#7c878e",
          "name": "Lowlight 2/UConn Grey",
          "slug": "lowlight-2"
        },
        {
          "color": "#e9f2f9",
          "name": "UConn Blue 100",
          "slug": "ucBlue-100"
        },
        {
          "color": "#a4cbe1",
          "name": "UConn Blue 200",
          "slug": "ucBlue-200"
        },
        {
          "color": "#4fabf6",
          "name": "UConn Blue 300",
          "slug": "ucBlue-300"
        },
        {
          "color": "#015999",
          "name": "UConn Blue 500",
          "slug": "ucBlue-500"
        },
        {
          "color": "#1540a2",
          "name": "UConn Blue 600",
          "slug": "ucBlue-600"
        },
        {
          "color": "#03357a",
          "name": "UConn Blue 700",
          "slug": "ucBlue-700"
        },
        {
          "color": "#f0f3f7",
          "name": "UConn Cool Grey 100",
          "slug": "ucCoolGrey-100"
        },
        {
          "color": "#a2aaad",
          "name": "UConn Cool Grey 200",
          "slug": "ucCoolGrey-200"
        },
        {
          "color": "#7c878e",
          "name": "UConn Cool Grey 300",
          "slug": "ucCoolGrey-300"
        },
        {
          "color": "#6b7880",
          "name": "UConn Cool Grey 500",
          "slug": "ucCoolGrey-500"
        },
        {
          "color": "#eeeeee",
          "name": "UConn Grey 100",
          "slug": "ucGrey-100"
        },
        {
          "color": "#ebebeb",
          "name": "UConn Grey 200",
          "slug": "ucGrey-200"
        },
        {
          "color": "#cccccc",
          "name": "UConn Grey 300",
          "slug": "ucGrey-300"
        },
        {
          "color": "#999999",
          "name": "UConn Grey 400",
          "slug": "ucGrey-400"
        },
        {
          "color": "#808080",
          "name": "UConn Grey 500",
          "slug": "ucGrey-500"
        },
        {
          "color": "#777777",
          "name": "UConn Grey 600",
          "slug": "ucGrey-600"
        },
        {
          "color": "#555555",
          "name": "UConn Grey 700",
          "slug": "ucGrey-700"
        },
        {
          "color": "#333333",
          "name": "UConn Grey 800",
          "slug": "ucGrey-800"
        },
        {
          "color": "#1a1a1a",
          "name": "UConn Grey 900",
          "slug": "ucGrey-900"
        },
        {
          "color": "#f05b4f",
          "name": "UConn Red 200",
          "slug": "ucRed-200"
        },
        {
          "color": "#e4002b",
          "name": "UConn Red 300",
          "slug": "ucRed-300"
        },
        {
          "color": "#c42b29",
          "name": "UConn Red 400",
          "slug": "ucRed-400"
        },
        {
          "color": "#a61c1b",
          "name": "UConn Red 500",
          "slug": "ucRed-500"
        },
        {
          "color": "#b10200",
          "name": "UConn Red 600",
          "slug": "ucRed-600"
        },
        {
          "color": "#6e0015",
          "name": "UConn Red 800",
          "slug": "ucRed-800"
        }
      ]
    },
    "custom": {
      "screens": {
        "xs": "480px",
        "sm": "768px",
        "md": "992px",
        "lg": "1240px",
        "xl": "1600px"
      },
      "typography": {
        "header": {
          "sizeLarge": "55px",
          "sizeMedium": "40px",
          "sizeSmall": "30px",
          "sizeXSmall": "20px"
        }
      }
    }
  },
  "styles": {
    "elements": {
      "button": {
        "border": {
          "color": "var(--wp--preset--color--highlight-2)",
          "radius": "0px",
          "width": "1px"
        },
        "css": "background-color: var(--wp--preset--color--highlight-2);",
        "typography": {
          "textTransform": "uppercase"
        },
        ":hover": {
          "border": {
            "color": "var(--wp--preset--color--background-1)"
          },
          "css": "background-color: var(--wp--preset--color--background-1);"
        },
        ":focus": {
          "border": {
            "color": "var(--wp--preset--color--background-1)"
          },
          "css": "background-color: var(--wp--preset--color--background-1);"
        }
      },
      "heading": {
        "color": {
          "text": "var(--wp--preset--color--contrast-2)"
        },
        "typography": {
          "fontFamily": "var(--wp--preset--fontFamily--heading)",
          "fontWeight": "500",
          "lineHeight": "1.3"
        }
      },
      "h1": {
        "typography": {
          "fontSize": "var(--wp--custom--typography--header--size-medium)"
        }
      },
      "h2": {
        "typography": {
          "fontSize": "var(--wp--custom--typography--header--size-large)"
        }
      },
      "h3": {
        "typography": {
          "fontSize": "var(--wp--custom--typography--header--size-small)"
        }
      },
      "h4": {
        "typography": {
          "fontSize": "var(--wp--custom--typography--header--size-x-small)"
        }
      }
    }
  }
}